…
``` r
#Reading the data
print(params$var)
```

    ## [1] "bus"

``` r
dataset <- read_csv("data/OnlineNewsPopularity.csv",show_col_types=FALSE) 
dataset
```

    ## # A tibble: 39,644 × 61
    ##    url        timed…¹ n_tok…² n_tok…³ n_uni…⁴ n_non…⁵ n_non…⁶ num_h…⁷ num_s…⁸ num_i…⁹ num_v…˟ avera…˟ num_k…˟
    ##    <chr>        <dbl>   <dbl>   <dbl>   <dbl>   <dbl>   <dbl>   <dbl>   <dbl>   <dbl>   <dbl>   <dbl>   <dbl>
    ##  1 http://ma…     731      12     219   0.664    1.00   0.815       4       2       1       0    4.68       5
    ##  2 http://ma…     731       9     255   0.605    1.00   0.792       3       1       1       0    4.91       4
    ##  3 http://ma…     731       9     211   0.575    1.00   0.664       3       1       1       0    4.39       6
    ##  4 http://ma…     731       9     531   0.504    1.00   0.666       9       0       1       0    4.40       7
    ##  5 http://ma…     731      13    1072   0.416    1.00   0.541      19      19      20       0    4.68       7
    ##  6 http://ma…     731      10     370   0.560    1.00   0.698       2       2       0       0    4.36       9
    ##  7 http://ma…     731       8     960   0.418    1.00   0.550      21      20      20       0    4.65      10
    ##  8 http://ma…     731      12     989   0.434    1.00   0.572      20      20      20       0    4.62       9
    ##  9 http://ma…     731      11      97   0.670    1.00   0.837       2       0       0       0    4.86       7
    ## 10 http://ma…     731      10     231   0.636    1.00   0.797       4       1       1       1    5.09       5
    ## # … with 39,634 more rows, 48 more variables: data_channel_is_lifestyle <dbl>,
    ## #   data_channel_is_entertainment <dbl>, data_channel_is_bus <dbl>, data_channel_is_socmed <dbl>,
    ## #   data_channel_is_tech <dbl>, data_channel_is_world <dbl>, kw_min_min <dbl>, kw_max_min <dbl>,
    ## #   kw_avg_min <dbl>, kw_min_max <dbl>, kw_max_max <dbl>, kw_avg_max <dbl>, kw_min_avg <dbl>,
    ## #   kw_max_avg <dbl>, kw_avg_avg <dbl>, self_reference_min_shares <dbl>, self_reference_max_shares <dbl>,
    ## #   self_reference_avg_sharess <dbl>, weekday_is_monday <dbl>, weekday_is_tuesday <dbl>,
    ## #   weekday_is_wednesday <dbl>, weekday_is_thursday <dbl>, weekday_is_friday <dbl>, …
…
Removing url and timedelta as they are non-predictive variables. Filter
the tibble based on n_tokens_content and n_tokens_title that is, where
number of words in the content and title are not zero.

``` r
#Remove url and timedelta and filter on data
df <- df %>% select(-url,-timedelta) %>% filter(n_tokens_content!=0,n_tokens_title!=0)
df
```

    ## # A tibble: 6,235 × 53
    ##    n_tokens…¹ n_tok…² n_uni…³ n_non…⁴ n_non…⁵ num_h…⁶ num_s…⁷ num_i…⁸ num_v…⁹ avera…˟ num_k…˟ kw_mi…˟ kw_ma…˟
    ##         <dbl>   <dbl>   <dbl>   <dbl>   <dbl>   <dbl>   <dbl>   <dbl>   <dbl>   <dbl>   <dbl>   <dbl>   <dbl>
    ##  1          9     255   0.605    1.00   0.792       3       1       1       0    4.91       4       0       0
    ##  2          9     211   0.575    1.00   0.664       3       1       1       0    4.39       6       0       0
    ##  3          8     397   0.625    1.00   0.806      11       0       1       0    5.45       6       0       0
    ##  4         13     244   0.560    1.00   0.680       3       2       1       0    4.42       4       0       0
    ##  5         11     723   0.491    1.00   0.642      18       1       1       0    5.23       6       0       0
    ##  6          8     708   0.482    1.00   0.688       8       3       1       1    4.62       7       0       0
    ##  7         10     142   0.655    1.00   0.792       2       1       1       0    4.27       5       0       0
    ##  8         12     444   0.601    1.00   0.755       9       8      23       0    4.81      10       0       0
    ##  9          6     109   0.667    1.00   0.737       3       2       1       0    4.73       6       0       0
    ## 10         13     306   0.535    1.00   0.705       3       2       1       0    4.58      10     217    5700
    ## # … with 6,225 more rows, 40 more variables: kw_avg_min <dbl>, kw_min_max <dbl>, kw_max_max <dbl>,
    ## #   kw_avg_max <dbl>, kw_min_avg <dbl>, kw_max_avg <dbl>, kw_avg_avg <dbl>, self_reference_min_shares <dbl>,
    ## #   self_reference_max_shares <dbl>, self_reference_avg_sharess <dbl>, weekday_is_monday <dbl>,
    ## #   weekday_is_tuesday <dbl>, weekday_is_wednesday <dbl>, weekday_is_thursday <dbl>,
    ## #   weekday_is_friday <dbl>, weekday_is_saturday <dbl>, weekday_is_sunday <dbl>, is_weekend <dbl>,
    ## #   LDA_00 <dbl>, LDA_01 <dbl>, LDA_02 <dbl>, LDA_03 <dbl>, LDA_04 <dbl>, global_subjectivity <dbl>,
    ## #   global_sentiment_polarity <dbl>, global_rate_positive_words <dbl>, global_rate_negative_words <dbl>, …
…
